module sender-redis

go 1.21.3

require (
	github.com/cespare/xxhash/v2 v2.1.2 // indirect
	github.com/dgryski/go-rendezvous v0.0.0-20200823014737-9f7001d12a5f // indirect
	github.com/go-redis/redis v6.15.9+incompatible
	github.com/go-redis/redis/v8 v8.11.5 // indirect
)
